<?xml version="1.0" standalone="no"?>
<!DOCTYPE svg PUBLIC "-//W3C//DTD SVG 1.1//EN" "http://www.w3.org/Graphics/SVG/1.1/DTD/svg11.dtd" >
<svg xmlns="http://www.w3.org/2000/svg">
<metadata>Generated by IcoMoon</metadata>
<defs>
<font id="icomoon" horiz-adv-x="1024">
<font-face units-per-em="1024" ascent="960" descent="-64" />
<missing-glyph horiz-adv-x="1024" />
<glyph unicode="&#x20;" horiz-adv-x="512" d="" />
<glyph unicode="&#xe900;" glyph-name="mouse" d="M998.195 702.515c-13.312 4.71-27.955-2.253-32.666-15.616-18.022-51.046-66.56-85.35-120.73-85.35-69.888 0-117.453 66.509-128.358 132.198-9.574 57.805-35.328 112.23-72.55 153.293-43.264 47.718-97.741 72.909-157.491 72.909-118.733 0-216.781-90.317-229.069-205.875-143.923-12.339-257.331-133.427-257.331-280.525v-256c0-155.29 126.31-281.6 281.6-281.6s281.6 126.31 281.6 281.6v256c0 146.074-111.821 266.547-254.362 280.269 11.878 87.347 86.989 154.931 177.562 154.931 97.946 0 164.454-92.262 179.558-183.398 7.424-44.954 27.341-87.091 56.064-118.63 33.536-36.864 76.032-56.371 122.778-56.371 75.827 0 143.718 48.026 169.011 119.45 4.71 13.312-2.253 27.955-15.616 32.666zM256 702.566v-203.366h-203.366c11.827 106.65 96.717 191.539 203.366 203.366zM281.6-12.8c-127.027 0-230.4 103.373-230.4 230.4v230.4h460.8v-230.4c0-127.027-103.373-230.4-230.4-230.4zM510.566 499.2h-203.366v203.366c106.65-11.827 191.539-96.717 203.366-203.366z" />
<glyph unicode="&#xe901;" glyph-name="chevron-up" d="M0 192c0-6.554 2.509-13.107 7.475-18.125 9.984-9.984 26.214-9.984 36.198 0l442.675 442.675 442.675-442.675c9.984-9.984 26.214-9.984 36.198 0s9.984 26.214 0 36.198l-460.8 460.8c-9.984 9.984-26.214 9.984-36.198 0l-460.8-460.8c-5.018-5.018-7.475-11.571-7.475-18.125z" />
<glyph unicode="&#xe902;" glyph-name="chevron-down" d="M0 652.8c0 6.554 2.509 13.107 7.475 18.125 9.984 9.984 26.214 9.984 36.198 0l442.675-442.675 442.675 442.675c9.984 9.984 26.214 9.984 36.198 0s9.984-26.214 0-36.198l-460.8-460.8c-9.984-9.984-26.214-9.984-36.198 0l-460.8 460.8c-5.018 5.018-7.475 11.571-7.475 18.125z" />
<glyph unicode="&#xe903;" glyph-name="chevron-left" d="M716.8-64c6.554 0 13.107 2.509 18.125 7.475 9.984 9.984 9.984 26.214 0 36.198l-442.675 442.675 442.675 442.675c9.984 9.984 9.984 26.214 0 36.198s-26.214 9.984-36.198 0l-460.8-460.8c-9.984-9.984-9.984-26.214 0-36.198l460.8-460.8c5.018-5.018 11.571-7.475 18.125-7.475z" />
<glyph unicode="&#xe904;" glyph-name="chevron-right" d="M256-64c-6.554 0-13.107 2.509-18.125 7.475-9.984 9.984-9.984 26.214 0 36.198l442.675 442.675-442.675 442.675c-9.984 9.984-9.984 26.214 0 36.198s26.214 9.984 36.198 0l460.8-460.8c9.984-9.984 9.984-26.214 0-36.198l-460.8-460.8c-5.018-5.018-11.571-7.475-18.125-7.475z" />
<glyph unicode="&#xe905;" glyph-name="cross2" d="M548.198 422.4l442.675 442.675c9.984 9.984 9.984 26.214 0 36.198s-26.214 9.984-36.198 0l-442.675-442.675-442.675 442.675c-9.984 9.984-26.214 9.984-36.198 0s-9.984-26.214 0-36.198l442.675-442.675-442.675-442.675c-9.984-9.984-9.984-26.214 0-36.198 5.018-5.018 11.571-7.475 18.125-7.475s13.107 2.509 18.125 7.475l442.675 442.675 442.675-442.675c5.018-5.018 11.571-7.475 18.125-7.475s13.107 2.509 18.125 7.475c9.984 9.984 9.984 26.214 0 36.198l-442.675 442.675z" />
<glyph unicode="&#xe906;" glyph-name="palette" d="M332.8 550.4c-42.342 0-76.8 34.458-76.8 76.8s34.458 76.8 76.8 76.8 76.8-34.458 76.8-76.8-34.458-76.8-76.8-76.8zM332.8 652.8c-14.131 0-25.6-11.469-25.6-25.6s11.469-25.6 25.6-25.6 25.6 11.469 25.6 25.6-11.469 25.6-25.6 25.6zM179.2 396.8c-42.342 0-76.8 34.458-76.8 76.8s34.458 76.8 76.8 76.8 76.8-34.458 76.8-76.8c0-42.342-34.458-76.8-76.8-76.8zM179.2 499.2c-14.131 0-25.6-11.469-25.6-25.6s11.469-25.6 25.6-25.6 25.6 11.469 25.6 25.6-11.469 25.6-25.6 25.6zM537.6 601.6c-42.342 0-76.8 34.458-76.8 76.8s34.458 76.8 76.8 76.8c42.342 0 76.8-34.458 76.8-76.8s-34.458-76.8-76.8-76.8zM537.6 704c-14.131 0-25.6-11.469-25.6-25.6s11.469-25.6 25.6-25.6 25.6 11.469 25.6 25.6-11.469 25.6-25.6 25.6zM512-12.8c-135.936 0-263.936 44.749-360.448 126.003-47.36 39.885-84.582 86.374-110.643 138.291-27.187 54.118-40.96 111.616-40.96 170.906s13.773 116.838 40.96 170.906c26.061 51.917 63.283 98.406 110.643 138.291 96.461 81.254 224.461 126.003 360.448 126.003s263.936-44.749 360.448-126.003c47.36-39.885 84.582-86.374 110.643-138.291 27.187-54.118 40.96-111.616 40.96-170.906 0-94.822-42.24-128.614-81.766-128.614-33.024 0-67.021 23.142-93.286 63.437-16.589 25.446-34.099 39.475-49.306 39.475-5.069 0-10.086-1.536-15.309-4.659-28.774-17.203-11.776-63.744 0.922-89.907 41.062-84.685 44.442-158.618 9.83-213.914-41.984-67.072-137.267-101.069-283.136-101.069zM512 806.4c-254.106 0-460.8-172.237-460.8-384s206.694-384 460.8-384c69.939 0 126.669 8.141 168.602 24.218 33.229 12.749 57.19 30.515 71.168 52.838 31.283 49.971 10.445 116.941-12.544 164.352-49.152 101.376-3.226 143.002 18.842 156.211 13.21 7.885 27.187 11.93 41.626 11.93 23.45 0 58.47-10.906 92.211-62.771 19.302-29.645 39.219-40.192 50.381-40.192 18.278 0 30.566 31.13 30.566 77.414 0 211.763-206.694 384-460.8 384zM563.2 140.8c-56.474 0-102.4 45.926-102.4 102.4s45.926 102.4 102.4 102.4c56.474 0 102.4-45.926 102.4-102.4s-45.926-102.4-102.4-102.4zM563.2 294.4c-28.211 0-51.2-22.989-51.2-51.2s22.989-51.2 51.2-51.2 51.2 22.989 51.2 51.2-22.989 51.2-51.2 51.2z" />
<glyph unicode="&#xe907;" glyph-name="brush2" d="M179.2 89.6c-6.758 0-13.363 2.714-18.074 7.526s-7.526 11.366-7.526 18.074 2.714 13.312 7.526 18.074c4.762 4.762 11.366 7.526 18.074 7.526s13.312-2.714 18.074-7.526c4.762-4.762 7.526-11.366 7.526-18.074s-2.714-13.363-7.526-18.074c-4.762-4.762-11.366-7.526-18.074-7.526zM954.675 476.723l-414.003 414.003c-14.49 14.49-33.741 22.426-54.323 22.426s-39.834-7.987-54.323-22.426l-260.403-260.403c-27.597-27.597-35.584-76.595-18.125-111.565l82.227-164.403c2.509-5.069 2.97-9.882 1.229-13.568s-5.683-6.502-11.213-7.782c-4.403-1.075-109.005-26.675-173.363-91.034-33.843-33.843-52.48-78.848-52.48-126.72s18.637-92.877 52.48-126.72c33.843-33.843 78.848-52.48 126.72-52.48 0 0 0 0 0 0 47.872 0 92.877 18.637 126.72 52.48 64.358 64.358 90.010 168.96 91.034 173.363 1.075 4.557 4.198 12.237 12.749 12.237 2.714 0 5.632-0.768 8.653-2.304l164.403-82.227c12.186-6.093 26.47-9.318 41.37-9.318 26.778 0 52.992 10.24 70.144 27.392l260.403 260.403c29.952 29.952 29.952 78.643 0 108.595zM658.125 143.923c-7.526-7.526-20.89-12.39-33.946-12.39-7.014 0-13.414 1.331-18.483 3.891l-164.403 82.227c-10.189 5.12-20.838 7.68-31.539 7.68-30.003 0-55.142-20.685-62.515-51.507-0.205-0.922-23.45-95.13-77.466-149.094-24.166-24.166-56.32-37.478-90.522-37.478s-66.355 13.312-90.522 37.478c-24.166 24.166-37.478 56.32-37.478 90.522s13.312 66.355 37.478 90.522c54.016 54.016 148.173 77.261 149.094 77.466 20.685 4.966 37.325 18.074 45.67 35.942s7.68 39.066-1.843 58.112l-82.227 164.403c-7.68 15.309-3.584 40.346 8.499 52.429l48.077 48.077 450.202-450.202-48.077-48.077zM918.477 404.275l-176.077-176.077-450.202 450.202 176.077 176.077c4.813 4.813 11.213 7.424 18.125 7.424s13.312-2.662 18.125-7.424l414.003-414.003c9.984-9.984 9.984-26.214 0-36.198z" />
<glyph unicode="&#xe908;" glyph-name="desktop" d="M947.2 908.8h-870.4c-42.342 0-76.8-34.458-76.8-76.8v-665.6c0-42.342 34.458-76.8 76.8-76.8h265.779l-35.379-70.758c-8.090-16.23-16.538-27.75-20.941-32.512-10.957-2.918-19.046-12.902-19.046-24.73 0-14.131 11.469-25.6 25.6-25.6h438.323c14.131 0 25.6 11.469 25.6 25.6 0 11.878-8.090 21.862-19.046 24.73-4.403 4.71-12.8 16.282-20.941 32.512l-35.379 70.758h265.779c42.342 0 76.8 34.458 76.8 76.8v665.6c0 42.342-34.458 76.8-76.8 76.8zM76.8 857.6h870.4c14.131 0 25.6-11.469 25.6-25.6v-486.4h-921.6v486.4c0 14.131 11.469 25.6 25.6 25.6zM671.027-4.045c1.485-2.97 3.021-5.888 4.608-8.755h-327.168c1.587 2.867 3.123 5.786 4.608 8.755l46.848 93.645h224.358l46.848-93.645zM947.2 140.8h-870.4c-14.131 0-25.6 11.469-25.6 25.6v128h921.6v-128c0-14.131-11.469-25.6-25.6-25.6zM537.6 192h-51.2c-14.131 0-25.6 11.469-25.6 25.6s11.469 25.6 25.6 25.6h51.2c14.131 0 25.6-11.469 25.6-25.6s-11.469-25.6-25.6-25.6z" />
<glyph unicode="&#xe909;" glyph-name="paper-plane" d="M1015.45 902.298c-7.373 6.605-17.869 8.346-26.982 4.506l-972.8-409.6c-9.83-4.147-16.077-13.926-15.667-24.576s7.373-19.917 17.51-23.296l289.69-96.563v-288.768c0-10.854 6.81-20.48 17.050-24.115 2.816-0.973 5.683-1.485 8.55-1.485 7.578 0 14.899 3.379 19.866 9.472l141.466 174.131 230.246-227.379c4.864-4.813 11.315-7.373 17.971-7.373 2.15 0 4.301 0.256 6.4 0.819 8.704 2.253 15.616 8.909 18.176 17.562l256 870.4c2.816 9.472-0.154 19.712-7.526 26.317zM825.856 782.797l-497.869-382.976-229.786 76.595 727.654 306.381zM358.4 358.605l482.048 370.79-368.333-453.325c0 0 0-0.051-0.051-0.051l-113.664-139.93v222.515zM729.907 61.082l-203.366 200.806 411.29 506.214-207.923-706.97z" />
<glyph unicode="&#xe90a;" glyph-name="pencil-ruler" d="M990.925 30.925l-365.875 365.875 329.677 329.677c29.952 29.952 29.952 78.643 0 108.595l-55.603 55.603c-14.49 14.49-33.741 22.426-54.323 22.426s-39.834-7.987-54.323-22.426l-329.677-329.677-365.875 365.875c-16.64 16.64-39.987 21.606-60.928 12.954s-33.946-28.723-33.946-52.326v-874.752c0-42.342 34.458-76.8 76.8-76.8h874.752c23.603 0 43.622 13.005 52.326 33.946s3.686 44.288-12.954 60.928zM332.8 243.2h128c6.81 0 13.312 2.714 18.125 7.475l7.475 7.475 117.402-117.402h-373.402c-14.131 0-25.6 11.469-25.6 25.6v373.402l117.402-117.402-7.475-7.475c-4.813-4.813-7.475-11.315-7.475-18.125v-128c0-14.131 11.469-25.6 25.6-25.6zM450.202 294.4h-91.802v91.802l409.6 409.6 91.802-91.802-409.6-409.6zM844.8 861.952c6.861 0 13.312-2.662 18.125-7.424l55.603-55.603c9.984-9.984 9.984-26.214 0-36.198l-22.477-22.477-91.802 91.802 22.477 22.477c4.813 4.813 11.213 7.424 18.125 7.424zM956.57-10.445c-0.819-1.946-3.174-2.355-5.018-2.355h-874.752c-14.131 0-25.6 11.469-25.6 25.6v76.8h25.6c14.131 0 25.6 11.469 25.6 25.6s-11.469 25.6-25.6 25.6h-25.6v102.4h25.6c14.131 0 25.6 11.469 25.6 25.6s-11.469 25.6-25.6 25.6h-25.6v102.4h25.6c14.131 0 25.6 11.469 25.6 25.6s-11.469 25.6-25.6 25.6h-25.6v102.4h25.6c14.131 0 25.6 11.469 25.6 25.6s-11.469 25.6-25.6 25.6h-25.6v285.952c0 1.843 0.41 4.198 2.355 5.018s3.84-0.563 5.12-1.843l365.875-365.875-66.202-66.202-124.877 124.877c-24.371 24.371-45.517 19.354-53.453 16.077s-26.419-14.694-26.419-49.152v-384c0-42.342 34.458-76.8 76.8-76.8h384c34.509 0 45.875 18.483 49.152 26.419s8.294 29.082-16.077 53.453l-124.877 124.877 66.202 66.202 365.875-365.875c1.28-1.28 2.662-3.226 1.843-5.12z" />
<glyph unicode="&#xe90b;" glyph-name="arrow-up" d="M468.275 926.925l-307.2-307.2c-9.984-9.984-9.984-26.214 0-36.198s26.214-9.984 36.198 0l263.475 263.475v-834.202c0-14.131 11.469-25.6 25.6-25.6s25.6 11.469 25.6 25.6v834.202l263.475-263.475c9.984-9.984 26.214-9.984 36.198 0 5.018 5.018 7.475 11.571 7.475 18.125s-2.509 13.107-7.475 18.125l-307.2 307.2c-9.984 9.984-26.214 9.984-36.198 0z" />
<glyph unicode="&#xe90c;" glyph-name="arrow-down" d="M504.525-30.925l307.2 307.2c9.984 9.984 9.984 26.214 0 36.198s-26.214 9.984-36.198 0l-263.475-263.475v834.202c0 14.131-11.469 25.6-25.6 25.6s-25.6-11.469-25.6-25.6v-834.202l-263.475 263.475c-9.984 9.984-26.214 9.984-36.198 0-5.018-5.018-7.475-11.571-7.475-18.125s2.509-13.107 7.475-18.125l307.2-307.2c9.984-9.984 26.214-9.984 36.198 0z" />
<glyph unicode="&#xe90d;" glyph-name="arrow-left" d="M33.075 440.525l307.2 307.2c9.984 9.984 26.214 9.984 36.198 0s9.984-26.214 0-36.198l-263.475-263.475h834.202c14.131 0 25.6-11.469 25.6-25.6s-11.469-25.6-25.6-25.6h-834.202l263.475-263.475c9.984-9.984 9.984-26.214 0-36.198-5.018-5.018-11.571-7.475-18.125-7.475s-13.107 2.509-18.125 7.475l-307.2 307.2c-9.984 9.984-9.984 26.214 0 36.198z" />
<glyph unicode="&#xe90e;" glyph-name="arrow-right" d="M990.925 440.525l-307.2 307.2c-9.984 9.984-26.214 9.984-36.198 0s-9.984-26.214 0-36.198l263.475-263.475h-834.202c-14.131 0-25.6-11.469-25.6-25.6s11.469-25.6 25.6-25.6h834.202l-263.475-263.475c-9.984-9.984-9.984-26.214 0-36.198 5.018-5.018 11.571-7.475 18.125-7.475s13.107 2.509 18.125 7.475l307.2 307.2c9.984 9.984 9.984 26.214 0 36.198z" />
<glyph unicode="&#xe90f;" glyph-name="menu" d="M896 652.8h-768c-14.131 0-25.6 11.469-25.6 25.6s11.469 25.6 25.6 25.6h768c14.131 0 25.6-11.469 25.6-25.6s-11.469-25.6-25.6-25.6zM896 396.8h-768c-14.131 0-25.6 11.469-25.6 25.6s11.469 25.6 25.6 25.6h768c14.131 0 25.6-11.469 25.6-25.6s-11.469-25.6-25.6-25.6zM896 140.8h-768c-14.131 0-25.6 11.469-25.6 25.6s11.469 25.6 25.6 25.6h768c14.131 0 25.6-11.469 25.6-25.6s-11.469-25.6-25.6-25.6z" />
<glyph unicode="&#xe910;" glyph-name="telephone" d="M819.2-64c-90.675 0-187.136 25.702-286.72 76.39-91.802 46.746-182.477 113.664-262.246 193.536s-146.586 170.65-193.28 262.502c-50.586 99.635-76.288 196.096-76.288 286.771 0 58.778 54.784 115.558 78.285 137.216 33.843 31.181 87.091 67.584 125.798 67.584 19.251 0 41.779-12.595 71.014-39.629 21.76-20.173 46.285-47.514 70.81-79.053 14.797-19.046 88.576-116.275 88.576-162.918 0-38.246-43.264-64.87-89.037-92.979-17.715-10.854-35.994-22.118-49.203-32.717-14.131-11.315-16.64-17.306-17.050-18.637 48.589-121.139 197.12-269.67 318.208-318.208 1.075 0.358 7.066 2.714 18.586 17.050 10.598 13.21 21.862 31.539 32.717 49.203 28.16 45.773 54.733 89.037 92.979 89.037 46.643 0 143.872-73.779 162.918-88.576 31.539-24.525 58.88-49.050 79.053-70.81 27.034-29.184 39.629-51.763 39.629-71.014 0-38.707-36.403-92.109-67.533-126.106-21.709-23.654-78.49-78.694-137.267-78.694zM204.493 908.8c-13.722-0.256-50.637-17.050-90.778-54.016-38.093-35.123-61.798-73.267-61.798-99.584 0-344.525 423.117-768 767.283-768 26.266 0 64.41 23.808 99.533 62.106 37.018 40.346 53.811 77.414 54.067 91.187-1.638 9.728-28.57 47.565-102.246 104.294-63.334 48.742-114.688 74.906-127.898 75.213-0.922-0.256-6.656-2.458-18.278-17.203-10.086-12.851-20.89-30.413-31.386-47.411-28.672-46.643-55.757-90.726-95.13-90.726-6.349 0-12.595 1.229-18.586 3.635-134.4 53.76-293.325 212.685-347.085 347.085-6.451 16.128-7.475 41.421 24.269 70.195 16.896 15.309 40.243 29.645 62.874 43.571 16.998 10.445 34.611 21.248 47.411 31.386 14.746 11.622 16.947 17.357 17.203 18.278-0.358 13.21-26.47 64.563-75.213 127.898-56.73 73.677-94.566 100.557-104.294 102.246z" />
<glyph unicode="&#xe911;" glyph-name="envelope" d="M896 652.8h-819.2c-42.342 0-76.8-34.458-76.8-76.8v-460.8c0-42.342 34.458-76.8 76.8-76.8h819.2c42.342 0 76.8 34.458 76.8 76.8v460.8c0 42.342-34.458 76.8-76.8 76.8zM896 601.6c1.536 0 2.97-0.154 4.454-0.41l-385.638-257.075c-14.848-9.882-41.933-9.882-56.781 0l-385.638 257.075c1.434 0.256 2.918 0.41 4.454 0.41h819.2zM896 89.6h-819.2c-14.131 0-25.6 11.469-25.6 25.6v438.579l378.419-252.262c15.923-10.598 36.352-15.923 56.781-15.923s40.858 5.325 56.781 15.923l378.419 252.262v-438.579c0-14.131-11.469-25.6-25.6-25.6z" />
<glyph unicode="&#xe912;" glyph-name="clock3" d="M830.362 766.362c-91.853 91.853-214.016 142.438-343.962 142.438s-252.058-50.586-343.962-142.438c-91.853-91.853-142.438-214.016-142.438-343.91s50.586-252.058 142.438-343.962 214.016-142.438 343.962-142.438 252.058 50.586 343.962 142.438 142.438 214.016 142.438 343.962-50.586 252.058-142.438 343.91zM486.4-12.8c-239.974 0-435.2 195.226-435.2 435.2s195.226 435.2 435.2 435.2 435.2-195.226 435.2-435.2-195.226-435.2-435.2-435.2zM774.605 588.8c-7.066 12.237-22.733 16.435-34.97 9.37l-251.904-145.459-196.352 137.472c-11.571 8.090-27.546 5.274-35.635-6.298s-5.274-27.546 6.298-35.635l209.715-146.842c0.051-0.051 0.102-0.051 0.154-0.102 0.41-0.307 0.87-0.563 1.331-0.819 0.102-0.051 0.256-0.154 0.358-0.205 0.461-0.256 0.922-0.512 1.382-0.717 0.102-0.051 0.205-0.102 0.307-0.154 0.512-0.256 1.024-0.461 1.587-0.717 0.307-0.102 0.614-0.256 0.973-0.358 0.256-0.102 0.461-0.154 0.717-0.256 0.358-0.102 0.666-0.205 1.024-0.307 0.205-0.051 0.461-0.102 0.666-0.154 0.358-0.102 0.717-0.154 1.024-0.256 0.256-0.051 0.461-0.102 0.717-0.154 0.307-0.051 0.666-0.102 0.973-0.154s0.614-0.051 0.922-0.102c0.256-0.051 0.563-0.051 0.819-0.102 0.614-0.051 1.178-0.051 1.792-0.051 0.973 0 1.946 0.051 2.918 0.154 0 0 0.051 0 0.051 0 0.922 0.102 1.894 0.307 2.816 0.512 0.051 0 0.154 0.051 0.205 0.051 0.87 0.205 1.741 0.461 2.611 0.819 0.154 0.051 0.256 0.102 0.358 0.154 0.819 0.307 1.638 0.666 2.406 1.075 0.154 0.102 0.307 0.154 0.461 0.256 0.307 0.154 0.563 0.307 0.87 0.461l266.035 153.6c12.237 7.066 16.435 22.733 9.37 34.97z" />
</font></defs></svg>